%YAML 1.1
%TAG !u! tag:unity3d.com,2011:
--- !u!162 &1
EditorUserSettings:
  m_ObjectHideFlags: 0
  serializedVersion: 4
  m_ConfigSettings:
    RecentlyUsedSceneGuid-0:
      value: 5350015455030a5f585d0e7041215a44434f402f2a7e7565747c4f6ab0b93161
      flags: 0
    RecentlyUsedSceneGuid-1:
      value: 5652025400055c085b0b5a2143770641134e1a7c2978763378704d62e6b1326e
      flags: 0
    RecentlyUsedSceneGuid-2:
      value: 0700575554055059090c597611270a44154f19782e7a7e63757c4f6be7b66068
      flags: 0
    RecentlyUsedSceneGuid-3:
      value: 5a5757560101590a5d0c0e24427b5d44434e4c7a7b7a23677f2b4565b7b5353a
      flags: 0
    RecentlyUsedSceneGuid-4:
      value: 5553565250015c0f5d0f5d2612715c444f154b2c787b2235747b1c37b1b5676d
      flags: 0
    RecentlyUsedScenePath-0:
      value: 22424703114646740e1b0037036c6c111b07142f0a3a273d283e1221e9af012be3e033a6d42e3e2e2d31ec390a3b4f2afc031d12
      flags: 0
    RecentlyUsedScenePath-1:
      value: 22424703114646740e1b0037036c6c111b07142f0a3a273d283e1221e9af012be3e033a6d42a3e283003e31d0a3d0930e0441c05ff1f13
      flags: 0
    RecentlyUsedScenePath-2:
      value: 22424703114646740e1b0037036c6c111b07142f0a3a273d283e1221e9af012be3e033a6d73b2c2f2d0afd3311390971e704001fef
      flags: 0
    RecentlyUsedScenePath-3:
      value: 22424703114646740e1b0037036c6c111b07142f0a3a273d283e1221e9af012be3e033a6c80c0d132f07fd300527223efc1c0818b81e04020517
      flags: 0
    RecentlyUsedScenePath-4:
      value: 22424703114646740e1b0037036c6c111b07142f0a3a273d283e1221e9af012be3e033a6c33f3d293e37c6721130082beb
      flags: 0
    RecentlyUsedScenePath-5:
      value: 22424703114646740e1b0037036c6c111b07142f0a3a273d283e1221e9af012be3e033a6c33f3d293e37c67c55701431fb1e10
      flags: 0
    RecentlyUsedScenePath-6:
      value: 22424703114646770c1415041f2410350e16153a202d15332827187df7ee3d2cfb
      flags: 0
    RecentlyUsedScenePath-7:
      value: 224247031146466d0202192f1563791f11572e78631e293c38241873c4ef3376f7e93ffdfe
      flags: 0
    RecentlyUsedScenePath-8:
      value: 224247031146467f080d0d2e233a4c04131a570f34292b20212c5216fae13928eee278fce9332b25
      flags: 0
    RecentlyUsedScenePath-9:
      value: 22424703114646680e0b0227036c6b1505032a25232568252320092a
      flags: 0
    vcSharedLogLevel:
      value: 0d5e400f0650
      flags: 0
  m_VCAutomaticAdd: 1
  m_VCDebugCom: 0
  m_VCDebugCmd: 0
  m_VCDebugOut: 0
  m_SemanticMergeMode: 2
  m_DesiredImportWorkerCount: 2
  m_StandbyImportWorkerCount: 2
  m_IdleImportWorkerShutdownDelay: 60000
  m_VCShowFailedCheckout: 1
  m_VCOverwriteFailedCheckoutAssets: 1
  m_VCProjectOverlayIcons: 1
  m_VCHierarchyOverlayIcons: 1
  m_VCOtherOverlayIcons: 1
  m_VCAllowAsyncUpdate: 1
  m_ArtifactGarbageCollection: 1
