# Blender v2.82 (sub 7) OBJ File: ''
# www.blender.org
mtllib banca2.mtl
o Cube_Cube.005
v 1.470421 1.115375 -0.423118
v 1.470421 1.214302 -0.459493
v 1.470421 1.214302 -0.556218
v 1.470421 1.115375 -0.554333
v 1.774271 1.214302 -0.556218
v 1.774271 1.115375 -0.554333
v 1.774271 1.115375 0.423118
v 1.774271 1.214302 0.459493
v 1.774271 1.214302 0.556218
v 1.774271 1.115375 0.554333
v 1.470421 1.214302 0.556218
v 1.470421 1.115375 0.554333
v 1.774271 1.047819 0.508541
v 1.470421 1.047819 0.508541
v 1.774271 1.047819 0.373484
v 1.470421 1.047819 -0.508541
v 1.774271 1.047819 -0.508541
v 1.470421 1.047819 -0.373484
v 1.470421 1.032897 -0.349547
v 1.470421 1.032897 -0.443530
v 1.774271 1.032897 -0.443530
v 1.774271 1.032897 0.349547
v 1.774271 1.032897 0.443530
v 1.470421 1.032897 0.443530
v 1.470421 1.032897 0.349547
v 1.470421 0.734467 0.396018
v 1.489090 0.734467 0.396018
v 1.489090 1.032897 0.349547
v 1.774271 0.553821 0.528784
v 1.774271 0.564691 0.456887
v 1.470421 0.564691 0.456887
v 1.470421 0.553821 0.528784
v 1.774271 0.553821 0.436829
v 1.774271 0.564691 0.416573
v 1.470421 0.553821 -0.528784
v 1.470421 0.564691 -0.456887
v 1.774271 0.564691 -0.456887
v 1.774271 0.553821 -0.528784
v 1.470421 0.553821 -0.436829
v 1.470421 0.564691 -0.416573
v 1.470421 0.553821 0.248466
v 1.470421 0.564691 0.241114
v 1.470421 0.564691 0.000000
v 1.470421 0.553821 0.000000
v 1.774271 0.553821 -0.248466
v 1.774271 0.564691 -0.241114
v 1.774271 0.564691 0.000000
v 1.774271 0.553821 0.000000
v 1.755697 0.564691 -0.241114
v 1.755697 0.734467 -0.220120
v 1.755697 0.734467 0.000000
v 1.755697 0.564691 0.000000
v 1.488994 0.564691 0.241114
v 1.488994 0.734467 0.220120
v 1.488994 0.734467 0.000000
v 1.488994 0.564691 0.000000
v 1.774271 1.032897 -0.174774
v 1.774271 1.047819 -0.186742
v 1.774271 1.047819 0.000000
v 1.774271 1.032897 0.000000
v 1.470421 1.032897 0.174774
v 1.470421 1.047819 0.186742
v 1.470421 1.047819 0.000000
v 1.470421 1.032897 0.000000
v 1.470421 1.115375 0.211559
v 1.470421 1.115375 0.000000
v 1.774271 1.115375 -0.211559
v 1.774271 1.115375 0.000000
v 1.488994 1.032897 0.174774
v 1.488994 1.032897 0.000000
v 1.755697 1.032897 -0.174774
v 1.755697 1.032897 0.000000
v 1.774271 1.214302 -0.229746
v 1.774271 1.214302 0.000000
v 1.470421 1.214302 0.229746
v 1.470421 1.214302 0.000000
v 1.774271 0.485381 -0.251483
v 1.774271 0.485381 0.000000
v 1.470421 0.485381 0.251483
v 1.470421 0.485381 0.000000
v 1.470421 0.485381 -0.442134
v 1.470421 0.485381 -0.535206
v 1.774271 0.485381 -0.535206
v 1.774271 0.485381 0.442134
v 1.774271 0.485381 0.535206
v 1.470421 0.485381 0.535206
v 1.774271 0.485381 0.251483
v 1.774271 0.553821 0.248466
v 1.470421 0.553821 0.436829
v 1.470421 0.485381 0.442134
v 1.470421 1.214302 0.459493
v 1.470421 1.115375 0.423118
v 1.774271 0.734467 -0.396018
v 1.774271 0.564691 -0.416573
v 1.755601 0.564691 -0.416573
v 1.755601 0.734467 -0.396018
v 1.470421 1.047819 0.373484
v 1.774271 1.032897 -0.349547
v 1.755601 1.032897 -0.349547
v 1.755601 1.032897 -0.423129
v 1.470421 0.564691 0.416573
v 1.774271 0.564691 0.241114
v 1.774271 0.734467 0.220120
v 1.774271 0.734467 0.396018
v 1.774271 1.032897 0.174774
v 1.774271 1.047819 0.186742
v 1.774271 1.115375 0.211559
v 1.774271 1.214302 0.229746
v 1.470421 0.485381 -0.251483
v 1.470421 0.553821 -0.248466
v 1.774271 0.553821 -0.436829
v 1.774271 0.485381 -0.442134
v 1.774271 1.214302 -0.459493
v 1.774271 1.115375 -0.423118
v 1.774271 1.047819 -0.373484
v 1.489090 0.564691 -0.416573
v 1.489090 0.564691 -0.435872
v 1.470421 0.564691 -0.241114
v 1.470421 0.734467 -0.220120
v 1.470421 0.734467 -0.396018
v 1.470421 1.032897 -0.174774
v 1.470421 1.047819 -0.186742
v 1.470421 1.115375 -0.211559
v 1.470421 1.214302 -0.229746
v 1.755601 0.734467 0.396018
v 1.755601 1.032897 0.349547
v 1.755601 1.032897 0.423129
v 1.755601 0.734467 0.489674
v 1.489090 0.734467 -0.396018
v 1.489090 1.032897 -0.349547
v 1.489090 1.032897 -0.423129
v 1.489090 0.734467 -0.489674
v 1.755601 0.564691 0.416573
v 1.755601 0.564691 0.435872
v 1.489090 0.734467 0.489674
v 1.489090 1.032897 0.423129
v 1.489090 0.564691 0.435872
v 1.489090 0.564691 0.416573
v 1.755601 0.734467 -0.489674
v 1.755601 0.564691 -0.435872
v 1.755697 1.032897 0.174774
v 1.755697 0.734467 0.220120
v 1.755697 0.564691 0.241114
v 1.470421 0.734467 0.220120
v 1.488994 1.032897 -0.174774
v 1.488994 0.734467 -0.220120
v 1.488994 0.564691 -0.241114
v 1.774271 0.734467 -0.220120
v -1.470421 1.115375 -0.423118
v -1.470421 1.115375 -0.554333
v -1.470421 1.214302 -0.556218
v -1.470421 1.214302 -0.459493
v -1.774271 1.115375 -0.554333
v -1.774271 1.214302 -0.556218
v -1.774271 1.115375 0.423118
v -1.774271 1.115375 0.554333
v -1.774271 1.214302 0.556218
v -1.774271 1.214302 0.459493
v -1.470421 1.115375 0.554333
v -1.470421 1.214302 0.556218
v -1.774271 1.047819 0.508541
v -1.470421 1.047819 0.508541
v -1.774271 1.047819 0.373484
v -1.470421 1.047819 -0.508541
v -1.774271 1.047819 -0.508541
v -1.470421 1.047819 -0.373484
v -1.470421 1.032897 -0.349547
v -1.470421 1.032897 -0.443530
v -1.774271 1.032897 -0.443530
v -1.774271 1.032897 0.349547
v -1.774271 1.032897 0.443530
v -1.470421 1.032897 0.443530
v -1.470421 1.032897 0.349547
v -1.489090 1.032897 0.349547
v -1.489090 0.734467 0.396018
v -1.470421 0.734467 0.396018
v -1.774271 0.553821 0.528784
v -1.470421 0.553821 0.528784
v -1.470421 0.564691 0.456887
v -1.774271 0.564691 0.456887
v -1.774271 0.553821 0.436829
v -1.774271 0.564691 0.416573
v -1.470421 0.553821 -0.528784
v -1.774271 0.553821 -0.528784
v -1.774271 0.564691 -0.456887
v -1.470421 0.564691 -0.456887
v -1.470421 0.553821 -0.436829
v -1.470421 0.564691 -0.416573
v -1.470421 0.553821 0.248466
v -1.470421 0.553821 0.000000
v -1.470421 0.564691 0.000000
v -1.470421 0.564691 0.241114
v -1.774271 0.553821 -0.248466
v -1.774271 0.553821 0.000000
v -1.774271 0.564691 0.000000
v -1.774271 0.564691 -0.241114
v -1.755697 0.564691 -0.241114
v -1.755697 0.564691 0.000000
v -1.755697 0.734467 0.000000
v -1.755697 0.734467 -0.220120
v -1.488994 0.564691 0.241114
v -1.488994 0.564691 0.000000
v -1.488994 0.734467 0.000000
v -1.488994 0.734467 0.220120
v -1.774271 1.032897 -0.174774
v -1.774271 1.032897 0.000000
v -1.774271 1.047819 0.000000
v -1.774271 1.047819 -0.186742
v -1.470421 1.032897 0.174774
v -1.470421 1.032897 0.000000
v -1.470421 1.047819 0.000000
v -1.470421 1.047819 0.186742
v -1.470421 1.115375 0.000000
v -1.470421 1.115375 0.211559
v -1.774271 1.115375 0.000000
v -1.774271 1.115375 -0.211559
v -1.488994 1.032897 0.000000
v -1.488994 1.032897 0.174774
v -1.755697 1.032897 0.000000
v -1.755697 1.032897 -0.174774
v -1.774271 1.214302 0.000000
v -1.774271 1.214302 -0.229746
v -1.470421 1.214302 0.000000
v -1.470421 1.214302 0.229746
v -1.774271 0.485381 -0.251483
v -1.774271 0.485381 0.000000
v -1.470421 0.485381 0.251483
v -1.470421 0.485381 0.000000
v -1.470421 0.485381 -0.442134
v -1.470421 0.485381 -0.535206
v -1.774271 0.485381 -0.535206
v -1.774271 0.485381 0.442134
v -1.774271 0.485381 0.535206
v -1.470421 0.485381 0.535206
v -1.774271 0.485381 0.251483
v -1.774271 0.553821 0.248466
v -1.470421 0.485381 0.442134
v -1.470421 0.553821 0.436829
v -1.470421 1.115375 0.423118
v -1.470421 1.214302 0.459493
v -1.774271 0.734467 -0.396018
v -1.755601 0.734467 -0.396018
v -1.755601 0.564691 -0.416573
v -1.774271 0.564691 -0.416573
v -1.470421 1.047819 0.373484
v -1.755601 1.032897 -0.423129
v -1.755601 1.032897 -0.349547
v -1.774271 1.032897 -0.349547
v -1.470421 0.564691 0.416573
v -1.774271 0.564691 0.241114
v -1.774271 0.734467 0.396018
v -1.774271 0.734467 0.220120
v -1.774271 1.032897 0.174774
v -1.774271 1.047819 0.186742
v -1.774271 1.115375 0.211559
v -1.774271 1.214302 0.229746
v -1.470421 0.485381 -0.251483
v -1.470421 0.553821 -0.248466
v -1.774271 0.485381 -0.442134
v -1.774271 0.553821 -0.436829
v -1.774271 1.115375 -0.423118
v -1.774271 1.214302 -0.459493
v -1.774271 1.047819 -0.373484
v -1.489090 0.564691 -0.435872
v -1.489090 0.564691 -0.416573
v -1.470421 0.564691 -0.241114
v -1.470421 0.734467 -0.396018
v -1.470421 0.734467 -0.220120
v -1.470421 1.032897 -0.174774
v -1.470421 1.047819 -0.186742
v -1.470421 1.115375 -0.211559
v -1.470421 1.214302 -0.229746
v -1.755601 0.734467 0.396018
v -1.755601 0.734467 0.489674
v -1.755601 1.032897 0.423129
v -1.755601 1.032897 0.349547
v -1.489090 0.734467 -0.396018
v -1.489090 0.734467 -0.489674
v -1.489090 1.032897 -0.423129
v -1.489090 1.032897 -0.349547
v -1.755601 0.564691 0.416573
v -1.755601 0.564691 0.435872
v -1.489090 0.734467 0.489674
v -1.489090 1.032897 0.423129
v -1.489090 0.564691 0.435872
v -1.489090 0.564691 0.416573
v -1.755601 0.734467 -0.489674
v -1.755601 0.564691 -0.435872
v -1.755697 0.734467 0.220120
v -1.755697 1.032897 0.174774
v -1.755697 0.564691 0.241114
v -1.470421 0.734467 0.220120
v -1.488994 0.734467 -0.220120
v -1.488994 1.032897 -0.174774
v -1.488994 0.564691 -0.241114
v -1.774271 0.734467 -0.220120
v 2.174269 1.411379 0.614794
v 2.174269 1.411379 -0.614794
v 2.074206 1.521798 -0.614927
v 2.074206 1.521798 0.524955
v -2.174269 1.411379 -0.614794
v -2.074206 1.521798 -0.614927
v -2.174269 1.411379 0.614794
v -2.074206 1.521798 0.524955
v 2.174269 1.213235 -0.614794
v 2.174269 1.213235 0.614794
v -2.174269 1.213235 0.614794
v -2.174269 1.213235 -0.614794
v 0.489754 1.511192 -0.419667
v 0.489754 1.696949 -0.436366
v 0.000000 1.696949 -0.436366
v 0.000000 1.511192 -0.419667
v 1.512112 1.696949 -0.631769
v 1.512112 2.047189 -0.647401
v 1.806672 2.047189 -0.647401
v 1.806672 1.696949 -0.631769
v 1.806672 1.693408 0.126329
v 1.806672 1.848210 0.103162
v 1.806672 1.814171 0.283943
v 1.806672 1.691237 0.386234
v 1.512112 1.814171 0.283943
v 1.512112 1.691237 0.386234
v 1.512112 1.511192 0.153495
v 1.806672 1.511192 0.153495
v 1.806672 1.511192 0.383437
v 1.512112 1.511192 0.383437
v 1.512112 1.848210 0.103162
v 1.512112 2.047189 -0.453064
v 1.806672 2.047189 -0.453064
v 1.806672 2.095469 -0.453064
v 1.512112 2.095469 -0.453064
v 1.512112 1.511192 -0.613510
v 1.806672 1.511192 -0.613510
v 1.806672 1.511192 -0.419667
v 1.512112 1.511192 -0.419667
v 1.880936 2.047189 -0.453064
v 1.512112 1.693979 -0.286723
v 1.512112 2.012693 -0.303927
v 1.512112 1.696949 -0.436366
v 1.512112 1.695578 -0.145911
v 1.512112 1.895299 -0.167857
v 1.806672 2.012693 -0.303927
v 1.806672 1.511192 -0.272475
v 1.512112 1.511192 -0.272475
v 1.806672 1.696949 -0.436366
v 1.806672 1.693979 -0.286723
v 1.512112 1.694493 -0.020071
v 1.512112 1.854949 -0.032336
v 1.806672 1.895299 -0.167857
v 1.806672 1.511192 -0.132647
v 1.512112 1.511192 -0.132647
v 1.806672 1.695578 -0.145911
v 1.512112 1.511192 0.002885
v 1.880936 1.696949 -0.631769
v 1.880936 1.511192 -0.613510
v 0.489754 2.047189 -0.453064
v 0.000000 2.047189 -0.453064
v 1.806672 1.511192 0.002885
v 1.806672 1.694493 -0.020071
v 1.512112 1.693408 0.126329
v 1.806672 1.854949 -0.032336
v 0.489754 2.047189 -0.647401
v 0.489754 1.696949 -0.631769
v 0.000000 1.696949 -0.631769
v 0.000000 2.047189 -0.647401
v 1.512112 2.095469 -0.647401
v 1.806672 2.095469 -0.647401
v 0.489754 1.511192 -0.613510
v 0.000000 1.511192 -0.613510
v 0.489754 2.332412 -0.453064
v 0.489754 2.332412 -0.647402
v 0.000000 2.354849 -0.647402
v 0.000000 2.354849 -0.453064
v 1.880936 2.047189 -0.647401
v 0.979508 2.047189 -0.453064
v 0.979508 2.256045 -0.453064
v 0.979508 2.047189 -0.647401
v 0.979508 2.256045 -0.647401
v 0.979508 1.511192 -0.419667
v 0.979508 1.511192 -0.613510
v 0.979508 1.696949 -0.631769
v 0.979508 1.696949 -0.436366
v 1.880936 1.696949 -0.436366
v 1.880936 1.511192 -0.419667
v -0.489754 1.511192 -0.419667
v -0.489754 1.696949 -0.436366
v -1.512112 1.696949 -0.631769
v -1.806672 1.696949 -0.631769
v -1.806672 2.047189 -0.647401
v -1.512112 2.047189 -0.647401
v -1.806672 1.693408 0.126329
v -1.806672 1.691237 0.386234
v -1.806672 1.814171 0.283943
v -1.806672 1.848210 0.103162
v -1.512112 1.691237 0.386234
v -1.512112 1.814171 0.283943
v -1.512112 1.511192 0.153495
v -1.512112 1.511192 0.383437
v -1.806672 1.511192 0.383437
v -1.806672 1.511192 0.153495
v -1.512112 1.848210 0.103162
v -1.512112 2.047189 -0.453064
v -1.512112 2.095469 -0.453064
v -1.806672 2.095469 -0.453064
v -1.806672 2.047189 -0.453064
v -1.512112 1.511192 -0.616136
v -1.512112 1.511192 -0.419667
v -1.806672 1.511192 -0.419667
v -1.806672 1.511192 -0.616136
v -1.880936 2.047189 -0.453064
v -1.512112 1.693979 -0.286723
v -1.512112 1.696949 -0.436366
v -1.512112 2.012693 -0.303927
v -1.512112 1.695578 -0.145911
v -1.512112 1.895299 -0.167857
v -1.806672 2.012693 -0.303927
v -1.512112 1.511192 -0.272475
v -1.806672 1.511192 -0.272475
v -1.806672 1.696949 -0.436366
v -1.806672 1.693979 -0.286723
v -1.512112 1.694493 -0.020071
v -1.512112 1.854949 -0.032336
v -1.806672 1.895299 -0.167857
v -1.512112 1.511192 -0.132647
v -1.806672 1.511192 -0.132647
v -1.806672 1.695578 -0.145911
v -1.512112 1.511192 0.002885
v -1.880936 1.511192 -0.616136
v -1.880936 1.696949 -0.631769
v -0.489754 2.047189 -0.453064
v -1.806672 1.511192 0.002885
v -1.806672 1.694493 -0.020071
v -1.512112 1.693408 0.126329
v -1.806672 1.854949 -0.032336
v -0.489754 2.047189 -0.647401
v -0.489754 1.696949 -0.631769
v -1.806672 2.095469 -0.647401
v -1.512112 2.095469 -0.647401
v -0.489754 1.511192 -0.616136
v -0.489754 2.332412 -0.453064
v -0.489754 2.332412 -0.647402
v -1.880936 2.047189 -0.647401
v -0.979508 2.047189 -0.453064
v -0.979508 2.256045 -0.453064
v -0.979508 2.256045 -0.647401
v -0.979508 2.047189 -0.647401
v -0.979508 1.511192 -0.616136
v -0.979508 1.511192 -0.419667
v -0.979508 1.696949 -0.631769
v -0.979508 1.696949 -0.436366
v -1.880936 1.696949 -0.436366
v -1.880936 1.511192 -0.419667
v 1.512112 1.872069 -0.639585
v 1.806672 1.872069 -0.639585
v 1.806672 1.770809 0.114746
v 1.806672 1.758653 0.352936
v 1.512112 1.758653 0.352936
v 1.512112 1.863045 -0.295325
v 1.512112 1.872069 -0.444715
v 1.512112 1.795439 -0.156884
v 1.806672 1.872069 -0.444715
v 1.806672 1.863045 -0.295325
v 1.512112 1.774721 -0.026203
v 1.806672 1.795439 -0.156884
v 0.489754 1.872069 -0.444715
v 0.000000 1.872069 -0.444715
v 1.512112 1.770809 0.114746
v 1.806672 1.774721 -0.026203
v 0.489754 1.872069 -0.639585
v 0.000000 1.872069 -0.639585
v 0.979508 1.872069 -0.639585
v 0.979508 1.872069 -0.444715
v 1.880936 1.872069 -0.639585
v 1.880936 1.872069 -0.444715
v -1.512112 1.872069 -0.639585
v -1.806672 1.872069 -0.639585
v -1.806672 1.770809 0.114746
v -1.806672 1.758653 0.352936
v -1.512112 1.758653 0.352936
v -1.512112 1.863045 -0.295325
v -1.512112 1.872069 -0.444715
v -1.512112 1.795439 -0.156884
v -1.806672 1.872069 -0.444715
v -1.806672 1.863045 -0.295325
v -1.512112 1.774721 -0.026203
v -1.806672 1.795439 -0.156884
v -0.489754 1.872069 -0.444715
v -1.512112 1.770809 0.114746
v -1.806672 1.774721 -0.026203
v -0.489754 1.872069 -0.639585
v -0.979508 1.872069 -0.639585
v -0.979508 1.872069 -0.444715
v -1.880936 1.872069 -0.639585
v -1.880936 1.872069 -0.444715
v 1.512112 1.694778 -0.216317
v 1.512112 1.940860 -0.235892
v 1.806672 1.940860 -0.235892
v 1.512112 1.511192 -0.202561
v 1.806672 1.511192 -0.202561
v 1.806672 1.694778 -0.216317
v 1.806672 1.829242 -0.226104
v 1.512112 1.829242 -0.226104
v -1.512112 1.694778 -0.216317
v -1.512112 1.940860 -0.235892
v -1.806672 1.940860 -0.235892
v -1.512112 1.511192 -0.202561
v -1.806672 1.511192 -0.202561
v -1.806672 1.694778 -0.216317
v -1.806672 1.829242 -0.226104
v -1.512112 1.829242 -0.226104
vt 0.247416 0.937238
vt 0.263420 0.948186
vt 0.266769 0.979185
vt 0.252716 0.980092
vt 0.311314 0.879549
vt 0.311314 0.894012
vt 0.266932 0.894012
vt 0.266932 0.879549
vt 0.120932 0.937238
vt 0.136936 0.948186
vt 0.140285 0.979185
vt 0.126232 0.980092
vt 0.281395 0.832911
vt 0.266932 0.832911
vt 0.266932 0.788530
vt 0.281395 0.788530
vt 0.299483 0.832911
vt 0.299483 0.788530
vt 0.108969 0.921311
vt 0.114678 0.966071
vt 0.311314 0.861460
vt 0.266932 0.861460
vt 0.235453 0.921311
vt 0.241161 0.966071
vt 0.232342 0.912200
vt 0.236166 0.944169
vt 0.311314 0.839828
vt 0.266932 0.839828
vt 0.105858 0.912199
vt 0.109682 0.944168
vt 0.321116 0.832911
vt 0.321116 0.788530
vt 0.232418 0.658031
vt 0.181084 0.659434
vt 0.181513 0.656906
vt 0.229722 0.655137
vt 0.355858 0.884489
vt 0.355858 0.908345
vt 0.311476 0.908345
vt 0.311476 0.884489
vt 0.030673 0.922333
vt 0.032855 0.916405
vt 0.031008 0.927589
vt 0.026071 0.947426
vt 0.311476 0.863886
vt 0.311476 0.840031
vt 0.355858 0.840031
vt 0.355858 0.863886
vt 0.157157 0.922333
vt 0.159340 0.916405
vt 0.157492 0.927589
vt 0.152556 0.947425
vt 0.162421 0.706303
vt 0.163963 0.708717
vt 0.160233 0.787514
vt 0.159084 0.787518
vt 0.035938 0.706303
vt 0.037479 0.708717
vt 0.033749 0.787512
vt 0.032599 0.787517
vt 0.039914 0.710977
vt 0.060625 0.711087
vt 0.060765 0.786365
vt 0.036521 0.787440
vt 0.166398 0.710977
vt 0.187109 0.711087
vt 0.187249 0.786366
vt 0.163006 0.787442
vt 0.104644 0.727104
vt 0.106661 0.722828
vt 0.110747 0.784856
vt 0.108905 0.784837
vt 0.231128 0.727105
vt 0.233146 0.722829
vt 0.237232 0.784856
vt 0.235390 0.784837
vt 0.244102 0.713153
vt 0.247120 0.785003
vt 0.117617 0.713152
vt 0.120636 0.785003
vt 0.228560 0.729012
vt 0.232569 0.784869
vt 0.102076 0.729012
vt 0.106085 0.784868
vt 0.133410 0.706509
vt 0.135617 0.785151
vt 0.259895 0.706509
vt 0.262102 0.785151
vt 0.025841 0.705699
vt 0.023230 0.787520
vt 0.152324 0.705699
vt 0.149715 0.787521
vt 0.148108 0.922579
vt 0.144075 0.947862
vt 0.311476 0.874106
vt 0.355858 0.874106
vt 0.021624 0.922579
vt 0.017591 0.947862
vt 0.355858 0.874270
vt 0.311476 0.874270
vt 0.027365 0.862176
vt 0.036786 0.861401
vt 0.140448 0.615577
vt 0.149596 0.615918
vt 0.154804 0.642912
vt 0.145176 0.642768
vt 0.252510 0.589104
vt 0.266769 0.589892
vt 0.263665 0.621358
vt 0.247443 0.632626
vt 0.054600 0.659434
vt 0.030780 0.649338
vt 0.033272 0.647370
vt 0.055029 0.656906
vt 0.240874 0.603485
vt 0.235462 0.648820
vt 0.235982 0.625826
vt 0.109498 0.625826
vt 0.105934 0.658031
vt 0.103237 0.655137
vt 0.106745 0.630938
vt 0.155105 0.637128
vt 0.157264 0.649338
vt 0.038181 0.859126
vt 0.064614 0.860118
vt 0.054146 0.908390
vt 0.103642 0.844936
vt 0.105679 0.849210
vt 0.116696 0.858743
vt 0.132506 0.865331
vt 0.153850 0.862176
vt 0.163271 0.861401
vt 0.013964 0.615576
vt 0.023112 0.615918
vt 0.028320 0.642912
vt 0.018692 0.642768
vt 0.126026 0.589104
vt 0.140285 0.589892
vt 0.137181 0.621358
vt 0.120959 0.632626
vt 0.114391 0.603485
vt 0.108978 0.648820
vt 0.161564 0.918159
vt 0.160215 0.922922
vt 0.028622 0.637127
vt 0.164667 0.859126
vt 0.191099 0.860118
vt 0.180630 0.908390
vt 0.230127 0.844936
vt 0.232164 0.849210
vt 0.243180 0.858743
vt 0.258991 0.865331
vt 0.296150 0.594714
vt 0.347888 0.589104
vt 0.341601 0.615800
vt 0.298298 0.624493
vt 0.294077 0.696171
vt 0.347888 0.688817
vt 0.342105 0.716848
vt 0.295353 0.725225
vt 0.267273 0.710218
vt 0.268876 0.717563
vt 0.266932 0.608817
vt 0.268390 0.616745
vt 0.295353 0.652245
vt 0.342105 0.660623
vt 0.347888 0.688654
vt 0.294077 0.681300
vt 0.268876 0.659907
vt 0.267273 0.667253
vt 0.298298 0.752978
vt 0.341601 0.761671
vt 0.347888 0.788366
vt 0.296150 0.782757
vt 0.268390 0.760726
vt 0.266932 0.768654
vt 0.158135 0.642114
vt 0.159756 0.647370
vt 0.103165 0.915035
vt 0.054489 0.910696
vt 0.106902 0.939123
vt 0.180974 0.910696
vt 0.031651 0.642113
vt 0.233386 0.939124
vt 0.229649 0.915036
vt 0.035079 0.918159
vt 0.033731 0.922922
vt 0.233229 0.630938
vt 0.327870 0.791256
vt 0.327870 0.830184
vt 0.353131 0.915302
vt 0.314203 0.915302
vt 0.314203 0.833074
vt 0.353131 0.833074
vt 0.269659 0.833074
vt 0.308586 0.833074
vt 0.101129 0.843227
vt 0.064097 0.857541
vt 0.040459 0.856550
vt 0.187534 0.708240
vt 0.227614 0.843228
vt 0.190582 0.857541
vt 0.166945 0.856550
vt 0.061050 0.708239
vt 0.247416 0.937238
vt 0.252716 0.980092
vt 0.266769 0.979185
vt 0.263420 0.948186
vt 0.311314 0.879549
vt 0.266932 0.879549
vt 0.266932 0.894012
vt 0.311314 0.894012
vt 0.120932 0.937238
vt 0.126232 0.980092
vt 0.140285 0.979185
vt 0.136936 0.948186
vt 0.281395 0.832911
vt 0.281395 0.788530
vt 0.266932 0.788530
vt 0.266932 0.832911
vt 0.299483 0.832911
vt 0.299483 0.788530
vt 0.108969 0.921311
vt 0.114678 0.966071
vt 0.311314 0.861460
vt 0.266932 0.861460
vt 0.235453 0.921311
vt 0.241161 0.966071
vt 0.232342 0.912200
vt 0.236166 0.944169
vt 0.311314 0.839828
vt 0.266932 0.839828
vt 0.105858 0.912199
vt 0.109682 0.944168
vt 0.321116 0.832911
vt 0.321116 0.788530
vt 0.232418 0.658031
vt 0.229722 0.655137
vt 0.181513 0.656906
vt 0.181084 0.659434
vt 0.355858 0.884489
vt 0.311476 0.884489
vt 0.311476 0.908345
vt 0.355858 0.908345
vt 0.030673 0.922333
vt 0.026071 0.947426
vt 0.031008 0.927589
vt 0.032855 0.916405
vt 0.311476 0.863886
vt 0.355858 0.863886
vt 0.355858 0.840031
vt 0.311476 0.840031
vt 0.157157 0.922333
vt 0.152556 0.947425
vt 0.157492 0.927589
vt 0.159340 0.916405
vt 0.162421 0.706303
vt 0.159084 0.787518
vt 0.160233 0.787514
vt 0.163963 0.708717
vt 0.035938 0.706303
vt 0.032599 0.787517
vt 0.033749 0.787512
vt 0.037479 0.708717
vt 0.039914 0.710977
vt 0.036521 0.787440
vt 0.060765 0.786365
vt 0.060625 0.711087
vt 0.166398 0.710977
vt 0.163006 0.787442
vt 0.187249 0.786366
vt 0.187109 0.711087
vt 0.104644 0.727104
vt 0.108905 0.784837
vt 0.110747 0.784856
vt 0.106661 0.722828
vt 0.231128 0.727105
vt 0.235390 0.784837
vt 0.237232 0.784856
vt 0.233146 0.722829
vt 0.247120 0.785003
vt 0.244102 0.713153
vt 0.120636 0.785003
vt 0.117617 0.713152
vt 0.232569 0.784869
vt 0.228560 0.729012
vt 0.106085 0.784868
vt 0.102076 0.729012
vt 0.135617 0.785151
vt 0.133410 0.706509
vt 0.262102 0.785151
vt 0.259895 0.706509
vt 0.025841 0.705699
vt 0.023230 0.787520
vt 0.152324 0.705699
vt 0.149715 0.787521
vt 0.148108 0.922579
vt 0.144075 0.947862
vt 0.311476 0.874106
vt 0.355858 0.874106
vt 0.021624 0.922579
vt 0.017591 0.947862
vt 0.355858 0.874270
vt 0.311476 0.874270
vt 0.027365 0.862176
vt 0.036786 0.861401
vt 0.140448 0.615577
vt 0.145176 0.642768
vt 0.154804 0.642912
vt 0.149596 0.615918
vt 0.252510 0.589104
vt 0.247443 0.632626
vt 0.263665 0.621358
vt 0.266769 0.589892
vt 0.054600 0.659434
vt 0.055029 0.656906
vt 0.033272 0.647370
vt 0.030780 0.649338
vt 0.240874 0.603485
vt 0.235462 0.648820
vt 0.235982 0.625826
vt 0.109498 0.625826
vt 0.106745 0.630938
vt 0.103237 0.655137
vt 0.105934 0.658031
vt 0.157264 0.649338
vt 0.155105 0.637128
vt 0.038181 0.859126
vt 0.054146 0.908390
vt 0.064614 0.860118
vt 0.103642 0.844936
vt 0.105679 0.849210
vt 0.116696 0.858743
vt 0.132506 0.865331
vt 0.153850 0.862176
vt 0.163271 0.861401
vt 0.013964 0.615576
vt 0.018692 0.642768
vt 0.028320 0.642912
vt 0.023112 0.615918
vt 0.126026 0.589104
vt 0.120959 0.632626
vt 0.137181 0.621358
vt 0.140285 0.589892
vt 0.114391 0.603485
vt 0.108978 0.648820
vt 0.160215 0.922922
vt 0.161564 0.918159
vt 0.028622 0.637127
vt 0.164667 0.859126
vt 0.180630 0.908390
vt 0.191099 0.860118
vt 0.230127 0.844936
vt 0.232164 0.849210
vt 0.243180 0.858743
vt 0.258991 0.865331
vt 0.296150 0.594714
vt 0.298298 0.624493
vt 0.341601 0.615800
vt 0.347888 0.589104
vt 0.294077 0.696171
vt 0.295353 0.725225
vt 0.342105 0.716848
vt 0.347888 0.688817
vt 0.267273 0.710218
vt 0.268876 0.717563
vt 0.266932 0.608817
vt 0.268390 0.616745
vt 0.295353 0.652245
vt 0.294077 0.681300
vt 0.347888 0.688654
vt 0.342105 0.660623
vt 0.268876 0.659907
vt 0.267273 0.667253
vt 0.298298 0.752978
vt 0.296150 0.782757
vt 0.347888 0.788366
vt 0.341601 0.761671
vt 0.268390 0.760726
vt 0.266932 0.768654
vt 0.159756 0.647370
vt 0.158135 0.642114
vt 0.054489 0.910696
vt 0.103165 0.915035
vt 0.106902 0.939123
vt 0.180974 0.910696
vt 0.031651 0.642113
vt 0.229649 0.915036
vt 0.233386 0.939124
vt 0.033731 0.922922
vt 0.035079 0.918159
vt 0.233229 0.630938
vt 0.327870 0.830184
vt 0.327870 0.791256
vt 0.314203 0.915302
vt 0.353131 0.915302
vt 0.353131 0.833074
vt 0.314203 0.833074
vt 0.308586 0.833074
vt 0.269659 0.833074
vt 0.064097 0.857541
vt 0.101129 0.843227
vt 0.040459 0.856550
vt 0.187534 0.708240
vt 0.190582 0.857541
vt 0.227614 0.843228
vt 0.166945 0.856550
vt 0.061050 0.708239
vt 0.561121 0.454104
vt 0.419248 0.454104
vt 0.429614 0.465650
vt 0.550755 0.465650
vt 0.419248 0.955851
vt 0.429614 0.944305
vt 0.561121 0.955851
vt 0.550755 0.944305
vt -0.000121 0.215295
vt 0.127432 0.215295
vt 0.127432 0.557623
vt -0.000121 0.557623
vt 0.596069 0.989151
vt 0.596069 0.420804
vt 0.384300 0.989151
vt 0.384300 0.420804
vt 0.636204 0.003855
vt 0.635677 0.044113
vt 0.529880 0.044113
vt 0.529772 0.003855
vt 0.208712 0.305159
vt 0.208712 0.343081
vt 0.144926 0.343081
vt 0.144926 0.305159
vt 0.772414 0.609252
vt 0.771033 0.592161
vt 0.801917 0.602299
vt 0.811735 0.610707
vt 0.825736 0.567422
vt 0.836544 0.573735
vt 0.803059 0.542694
vt 0.854698 0.119215
vt 0.917952 0.119215
vt 0.917952 0.129583
vt 0.854698 0.129583
vt 0.933900 0.119215
vt 0.744285 0.454025
vt 0.705409 0.474975
vt 0.674369 0.448923
vt 0.716506 0.422275
vt 0.760182 0.467058
vt 0.727414 0.483841
vt 0.633482 0.516198
vt 0.668326 0.530175
vt 0.628955 0.564471
vt 0.667947 0.574125
vt 0.800280 0.507698
vt 0.780470 0.517838
vt 0.749419 0.492707
vt 0.776079 0.480091
vt 0.687585 0.547183
vt 0.706843 0.564191
vt 0.687083 0.583361
vt 0.706219 0.592596
vt 0.686644 0.670996
vt 0.686581 0.619538
vt 0.705594 0.621001
vt 0.706223 0.672229
vt 0.871077 0.481460
vt 0.820090 0.497558
vt 0.802739 0.467476
vt 0.852279 0.445111
vt 0.624792 0.666420
vt 0.624428 0.612745
vt 0.667567 0.618076
vt 0.667065 0.669763
vt 0.842031 0.427069
vt 0.792951 0.450275
vt 0.783162 0.433075
vt 0.831783 0.409027
vt 0.758642 0.395626
vt 0.809064 0.371008
vt 0.144926 0.227013
vt 0.144926 0.267238
vt 0.128845 0.267238
vt 0.128845 0.227013
vt 0.842202 0.649641
vt 0.821554 0.619116
vt 0.847351 0.580047
vt 0.887271 0.592077
vt 0.786201 0.670846
vt 0.773796 0.626344
vt 0.208712 0.227013
vt 0.208712 0.267238
vt 0.635417 0.081664
vt 0.635156 0.119215
vt 0.529986 0.119215
vt 0.529933 0.081664
vt 0.744112 0.673535
vt 0.738405 0.624193
vt 0.837356 0.531136
vt 0.887271 0.525029
vt 0.820208 0.536915
vt 0.741109 0.582160
vt 0.739757 0.603176
vt 0.430100 0.305159
vt 0.430100 0.267238
vt 0.536155 0.267238
vt 0.536155 0.305159
vt 0.208712 0.353536
vt 0.144926 0.353536
vt 0.430100 0.227013
vt 0.536155 0.227013
vt 0.953964 0.673500
vt 0.953964 0.627639
vt 0.984222 0.627639
vt 0.984222 0.673500
vt 0.984222 0.463856
vt 0.953964 0.463856
vt 0.953964 0.387525
vt 0.984222 0.387525
vt 0.430100 0.343081
vt 0.536155 0.343081
vt 0.536155 0.409704
vt 0.430100 0.404845
vt 0.128845 0.343081
vt 0.740326 0.119215
vt 0.740326 0.164065
vt 0.635156 0.180464
vt 0.529986 0.185283
vt 0.324046 0.343081
vt 0.324046 0.388308
vt 0.953964 0.541029
vt 0.984222 0.541029
vt 0.324046 0.227013
vt 0.324046 0.267238
vt 0.324046 0.305159
vt 0.855613 0.081664
vt 0.740900 0.081664
vt 0.858380 0.003855
vt 0.856528 0.044113
vt 0.741474 0.044113
vt 0.742636 0.003855
vt 0.955181 0.714557
vt 0.953964 0.687292
vt 0.984222 0.687292
vt 0.985521 0.714557
vt 0.959241 0.770743
vt 0.956398 0.741822
vt 0.986821 0.741822
vt 0.989421 0.770743
vt 0.919056 0.081664
vt 0.920159 0.044113
vt 0.936202 0.044113
vt 0.935051 0.081664
vt 0.922393 0.003855
vt 0.938532 0.003855
vt 0.128845 0.305159
vt 0.423340 0.003855
vt 0.424082 0.044113
vt 0.863597 0.305159
vt 0.927383 0.305159
vt 0.927383 0.343081
vt 0.863597 0.343081
vt 0.762723 0.750829
vt 0.802044 0.749374
vt 0.792226 0.757782
vt 0.761342 0.767921
vt 0.826853 0.786347
vt 0.816045 0.792659
vt 0.793368 0.817387
vt 0.205273 0.119215
vt 0.205273 0.129583
vt 0.142019 0.129583
vt 0.142019 0.119215
vt 0.126072 0.119215
vt 0.734595 0.906056
vt 0.706815 0.937807
vt 0.664679 0.911158
vt 0.695718 0.885107
vt 0.750491 0.893023
vt 0.717723 0.876240
vt 0.623791 0.843883
vt 0.658635 0.829906
vt 0.619264 0.795610
vt 0.658256 0.785956
vt 0.790589 0.852383
vt 0.766388 0.879990
vt 0.739728 0.867374
vt 0.770780 0.842243
vt 0.677894 0.812898
vt 0.697153 0.795890
vt 0.677392 0.776721
vt 0.696528 0.767485
vt 0.676953 0.689085
vt 0.696532 0.687853
vt 0.695903 0.739080
vt 0.676890 0.740543
vt 0.861386 0.878621
vt 0.842588 0.914970
vt 0.793048 0.892606
vt 0.810399 0.862523
vt 0.615101 0.693661
vt 0.657375 0.690318
vt 0.657876 0.742005
vt 0.614737 0.747337
vt 0.832340 0.933012
vt 0.822092 0.951054
vt 0.773471 0.927006
vt 0.783260 0.909806
vt 0.799374 0.989073
vt 0.748952 0.964455
vt 0.927383 0.227013
vt 0.943465 0.227013
vt 0.943465 0.267238
vt 0.927383 0.267238
vt 0.832511 0.710440
vt 0.877580 0.768003
vt 0.837660 0.780034
vt 0.811862 0.740966
vt 0.776510 0.689235
vt 0.764105 0.733737
vt 0.863597 0.227013
vt 0.863597 0.267238
vt 0.424449 0.081664
vt 0.424816 0.119215
vt 0.734421 0.686546
vt 0.728714 0.735888
vt 0.877580 0.835052
vt 0.827666 0.828945
vt 0.810517 0.823166
vt 0.731418 0.777921
vt 0.730066 0.756905
vt 0.642209 0.305159
vt 0.642209 0.267238
vt 0.927383 0.353536
vt 0.863597 0.353536
vt 0.642209 0.227013
vt 0.953964 0.101549
vt 0.984222 0.101549
vt 0.984222 0.147410
vt 0.953964 0.147410
vt 0.984222 0.311193
vt 0.953964 0.311193
vt 0.642209 0.343081
vt 0.642209 0.404845
vt 0.943465 0.343081
vt 0.319645 0.119215
vt 0.319645 0.164065
vt 0.424816 0.180464
vt 0.748264 0.388308
vt 0.748264 0.343081
vt 0.984222 0.234020
vt 0.953964 0.234020
vt 0.748264 0.267238
vt 0.748264 0.227013
vt 0.748264 0.305159
vt 0.204252 0.081664
vt 0.318965 0.081664
vt 0.201165 0.003855
vt 0.316909 0.003855
vt 0.318285 0.044113
vt 0.203231 0.044113
vt 0.955181 0.060493
vt 0.985521 0.060493
vt 0.984222 0.087758
vt 0.953964 0.087758
vt 0.958832 0.004307
vt 0.989421 0.004307
vt 0.986821 0.033228
vt 0.956398 0.033228
vt 0.140810 0.081664
vt 0.124814 0.081664
vt 0.123557 0.044113
vt 0.139600 0.044113
vt 0.121013 0.003855
vt 0.137152 0.003855
vt 0.943465 0.305159
vn -1.0000 -0.0000 0.0000
vn -0.7028 -0.0136 -0.7113
vn -0.6484 -0.2303 -0.7257
vn 0.7028 -0.0136 -0.7113
vn 0.6484 -0.2303 -0.7257
vn 1.0000 -0.0000 0.0000
vn 0.7028 -0.0136 0.7113
vn 0.6484 -0.2303 0.7257
vn -0.7028 -0.0136 0.7113
vn -0.6484 -0.2303 0.7257
vn 0.6333 -0.6386 0.4372
vn -0.6333 -0.6386 0.4372
vn -0.6333 -0.6386 -0.4372
vn 0.6333 -0.6386 -0.4372
vn -0.9220 -0.2518 -0.2940
vn -0.6826 -0.7261 -0.0823
vn 0.6826 -0.7261 -0.0823
vn 0.9220 -0.2518 0.2940
vn 0.6826 -0.7261 0.0823
vn -0.6826 -0.7261 0.0823
vn -0.9220 -0.2518 0.2940
vn -0.7033 0.0974 0.7042
vn -0.7110 0.0964 0.6966
vn -0.5697 -0.5346 0.6243
vn 0.5913 0.5539 0.5861
vn 0.6906 0.7212 0.0542
vn -0.6906 0.7212 0.0542
vn -0.5913 0.5539 0.5861
vn 0.8901 0.3411 0.3023
vn -0.5913 0.5539 -0.5861
vn -0.6906 0.7212 -0.0542
vn 0.6906 0.7212 -0.0542
vn 0.5913 0.5539 -0.5861
vn -0.8901 0.3411 -0.3023
vn -0.9186 0.2618 -0.2961
vn -0.7071 0.7071 0.0000
vn 0.9186 0.2618 0.2961
vn 0.7071 0.7071 0.0000
vn 0.5712 0.5436 0.6150
vn 0.7040 -0.0969 0.7036
vn -0.5712 0.5436 -0.6150
vn -0.7040 -0.0969 -0.7036
vn 0.8864 -0.3511 0.3018
vn 0.7071 -0.7071 0.0000
vn -0.8864 -0.3511 -0.3018
vn -0.7071 -0.7071 0.0000
vn -0.5857 -0.6147 -0.5283
vn 0.5857 -0.6147 0.5283
vn -0.6851 0.0681 -0.7253
vn 0.6851 0.0681 -0.7253
vn 0.6851 0.0681 0.7253
vn -0.6851 0.0681 0.7253
vn 0.7033 0.0974 -0.7042
vn 0.8901 0.3411 -0.3023
vn 0.5840 0.6075 -0.5384
vn 0.7110 0.0964 -0.6966
vn 0.9220 -0.2518 -0.2940
vn 0.5697 -0.5346 -0.6243
vn 0.3605 -0.8802 -0.3088
vn -0.8901 0.3411 0.3023
vn 0.9186 0.2618 -0.2961
vn 0.7102 -0.0961 -0.6974
vn 0.7033 0.0974 0.7042
vn 0.8864 -0.3511 -0.3018
vn -0.5840 0.6075 -0.5384
vn -0.3855 0.8700 -0.3074
vn -0.9186 0.2618 0.2961
vn -0.7102 -0.0961 0.6974
vn -0.7033 0.0974 -0.7042
vn -0.8864 -0.3511 0.3018
vn 0.7110 0.0964 0.6966
vn 0.5697 -0.5346 0.6243
vn 0.3605 -0.8802 0.3088
vn 0.6530 -0.0331 0.7567
vn -0.7110 0.0964 -0.6966
vn -0.5697 -0.5346 -0.6243
vn -0.3605 -0.8802 -0.3088
vn -0.6530 -0.0331 -0.7567
vn 0.5840 0.6075 0.5384
vn 0.3855 0.8700 0.3074
vn -0.6530 -0.0331 0.7567
vn -0.3605 -0.8802 0.3088
vn -0.3855 0.8700 0.3074
vn -0.5840 0.6075 0.5384
vn 0.6530 -0.0331 -0.7567
vn 0.3855 0.8700 -0.3074
vn 0.5857 -0.6147 -0.5283
vn 0.7040 -0.0969 -0.7036
vn 0.5712 0.5436 -0.6150
vn -0.7102 -0.0961 -0.6974
vn -0.5857 -0.6147 0.5283
vn -0.7040 -0.0969 0.7036
vn -0.5712 0.5436 0.6150
vn 0.7102 -0.0961 0.6974
vn 0.6605 0.3667 0.6552
vn 0.7213 0.2780 -0.6343
vn 0.3160 0.7123 -0.6267
vn 0.3170 0.8843 0.3429
vn -0.7213 0.2780 -0.6343
vn -0.3160 0.7123 -0.6267
vn -0.6605 0.3667 0.6552
vn -0.3170 0.8843 0.3429
vn 0.5774 -0.5774 -0.5774
vn 0.5774 -0.5774 0.5774
vn -0.5774 -0.5774 0.5774
vn -0.5774 -0.5774 -0.5774
vn 0.0000 0.0895 0.9960
vn 0.0000 0.0686 0.9976
vn 0.0000 -0.0446 -0.9990
vn 0.0000 -0.0223 -0.9998
vn 0.6921 0.7168 0.0849
vn 0.6562 0.6853 0.3158
vn 0.6617 0.4691 0.5849
vn -0.6562 0.6853 0.3158
vn -0.6617 0.4691 0.5849
vn -0.6921 0.7168 0.0849
vn -0.2370 0.2935 0.9261
vn 0.2370 0.2935 0.9261
vn 0.2164 0.7299 0.6484
vn 0.0979 0.6638 0.7415
vn 0.6954 0.3911 0.6029
vn -0.6476 0.6613 0.3786
vn -0.7071 0.0337 0.7063
vn -0.7330 0.5197 0.4389
vn 0.6476 0.6613 0.3786
vn 0.7071 0.0337 0.7063
vn -0.7350 0.6683 0.1144
vn -0.7424 0.6062 0.2852
vn 0.7330 0.5197 0.4389
vn 0.7424 0.6062 0.2852
vn 0.7264 0.0615 0.6845
vn 0.7024 0.0488 0.7101
vn -0.7024 0.0488 0.7101
vn -0.7264 0.0615 0.6845
vn 0.0000 -0.0978 -0.9952
vn 0.0000 -0.0712 -0.9975
vn 0.7011 -0.0508 -0.7112
vn 0.7282 -0.0670 -0.6821
vn 0.7106 -0.0109 0.7035
vn 0.6579 0.1655 0.7347
vn -0.6579 0.1655 0.7347
vn -0.7106 -0.0109 0.7035
vn 0.0000 0.0476 0.9989
vn 0.0000 0.0238 0.9997
vn 0.7350 0.6683 0.1144
vn 0.0007 -0.0695 -0.9976
vn 0.0979 0.6638 -0.7415
vn 0.2164 0.7299 -0.6484
vn 0.0013 -0.0943 -0.9955
vn 0.0719 0.7153 0.6951
vn 0.0719 0.7153 -0.6951
vn 0.0000 0.7171 -0.6970
vn -0.0000 0.7171 0.6969
vn 0.6925 0.3625 -0.6237
vn 0.1602 0.7040 0.6919
vn 0.1602 0.7040 -0.6919
vn 0.7071 -0.0315 -0.7064
vn 0.7119 0.0482 0.7007
vn 0.6860 0.0651 0.7246
vn -0.0979 0.6638 0.7415
vn -0.2164 0.7299 0.6484
vn -0.6954 0.3911 0.6029
vn 0.0000 -0.0839 -0.9965
vn -0.7253 -0.0577 -0.6860
vn -0.7027 -0.0457 -0.7100
vn 0.0000 -0.0642 -0.9979
vn 0.0007 -0.0660 -0.9978
vn -0.2164 0.7299 -0.6484
vn -0.0979 0.6638 -0.7415
vn 0.0013 -0.0874 -0.9962
vn -0.0719 0.7153 0.6951
vn -0.0719 0.7153 -0.6951
vn -0.6925 0.3625 -0.6237
vn -0.1602 0.7040 0.6919
vn -0.1602 0.7040 -0.6919
vn -0.7071 -0.0315 -0.7064
vn -0.6860 0.0651 0.7246
vn -0.7119 0.0482 0.7007
usemtl None.004
s 1
f 1/1/1 2/2/1 3/3/2 4/4/3
f 4/5/3 3/6/2 5/7/4 6/8/5
f 7/9/6 8/10/6 9/11/7 10/12/8
f 10/13/8 9/14/7 11/15/9 12/16/10
f 13/17/11 10/13/8 12/16/10 14/18/12
f 15/19/6 7/9/6 10/12/8 13/20/11
f 16/21/13 4/5/3 6/8/5 17/22/14
f 18/23/1 1/1/1 4/4/3 16/24/13
f 19/25/15 18/23/1 16/24/13 20/26/16
f 20/27/16 16/21/13 17/22/14 21/28/17
f 22/29/18 15/19/6 13/20/11 23/30/19
f 23/31/19 13/17/11 14/18/12 24/32/20
f 25/33/21 26/34/22 27/35/23 28/36/24
f 29/37/25 30/38/26 31/39/27 32/40/28
f 33/41/6 34/42/29 30/43/26 29/44/25
f 35/45/30 36/46/31 37/47/32 38/48/33
f 39/49/1 40/50/34 36/51/31 35/52/30
f 41/53/1 42/54/35 43/55/36 44/56/1
f 45/57/6 46/58/37 47/59/38 48/60/6
f 49/61/39 50/62/40 51/63/6 52/64/38
f 53/65/41 54/66/42 55/67/1 56/68/36
f 57/69/43 58/70/6 59/71/6 60/72/44
f 61/73/45 62/74/1 63/75/1 64/76/46
f 62/74/1 65/77/1 66/78/1 63/75/1
f 58/70/6 67/79/6 68/80/6 59/71/6
f 54/66/42 69/81/47 70/82/46 55/67/1
f 50/62/40 71/83/48 72/84/44 51/63/6
f 67/79/6 73/85/6 74/86/6 68/80/6
f 65/77/1 75/87/1 76/88/1 66/78/1
f 77/89/6 45/57/6 48/60/6 78/90/6
f 79/91/1 41/53/1 44/56/1 80/92/1
f 81/93/1 39/49/1 35/52/30 82/94/49
f 82/95/49 35/45/30 38/48/33 83/96/50
f 84/97/6 33/41/6 29/44/25 85/98/51
f 85/99/51 29/37/25 32/40/28 86/100/52
f 87/101/6 88/102/6 33/41/6 84/97/6
f 86/103/52 32/104/28 89/105/1 90/106/1
f 12/107/10 11/108/9 91/109/1 92/110/1
f 93/111/53 94/112/54 95/113/55 96/114/56
f 14/115/12 12/107/10 92/110/1 97/116/1
f 24/117/20 14/115/12 97/116/1 25/33/21
f 21/118/17 98/119/57 99/120/58 100/121/59
f 32/104/28 31/122/27 101/123/60 89/105/1
f 88/102/6 102/124/61 34/42/29 33/41/6
f 102/124/61 103/125/62 104/126/63 34/42/29
f 105/127/64 106/128/6 15/19/6 22/29/18
f 106/128/6 107/129/6 7/9/6 15/19/6
f 103/125/62 105/127/64 22/29/18 104/126/63
f 107/129/6 108/130/6 8/10/6 7/9/6
f 109/131/1 110/132/1 39/49/1 81/93/1
f 83/133/50 38/134/33 111/135/6 112/136/6
f 6/137/5 5/138/4 113/139/6 114/140/6
f 17/141/14 6/137/5 114/140/6 115/142/6
f 21/118/17 17/141/14 115/142/6 98/119/57
f 36/51/31 40/50/34 116/143/65 117/144/66
f 38/134/33 37/145/32 94/112/54 111/135/6
f 110/132/1 118/146/67 40/50/34 39/49/1
f 118/146/67 119/147/68 120/148/69 40/50/34
f 121/149/70 122/150/1 18/23/1 19/25/15
f 122/150/1 123/151/1 1/1/1 18/23/1
f 119/147/68 121/149/70 19/25/15 120/148/69
f 123/151/1 124/152/1 2/2/1 1/1/1
f 125/153/71 126/154/72 127/155/73 128/156/74
f 129/157/75 130/158/76 131/159/77 132/160/78
f 116/161/65 129/157/75 132/160/78 117/162/66
f 133/163/79 125/153/71 128/156/74 134/164/80
f 135/165/81 136/166/82 28/167/24 27/168/23
f 137/169/83 135/165/81 27/168/23 138/170/84
f 139/171/85 100/172/59 99/173/58 96/174/56
f 140/175/86 139/171/85 96/174/56 95/176/55
f 101/123/60 31/122/27 137/177/83 138/178/84
f 104/126/63 22/29/18 126/179/72 125/180/71
f 22/29/18 23/30/19 127/181/73 126/179/72
f 40/50/34 120/148/69 129/182/75 116/143/65
f 26/34/22 101/123/60 138/178/84 27/35/23
f 94/112/54 37/145/32 140/183/86 95/113/55
f 19/25/15 20/26/16 131/184/77 130/185/76
f 98/119/57 93/111/53 96/114/56 99/120/58
f 30/43/26 34/42/29 133/186/79 134/187/80
f 24/117/20 25/33/21 28/36/24 136/188/82
f 120/148/69 19/25/15 130/185/76 129/182/75
f 34/42/29 104/126/63 125/180/71 133/186/79
f 24/32/20 136/189/82 127/190/73 23/31/19
f 30/38/26 134/191/80 137/192/83 31/39/27
f 137/169/83 134/164/80 128/156/74 135/165/81
f 135/165/81 128/156/74 127/155/73 136/166/82
f 37/47/32 36/46/31 117/193/66 140/194/86
f 117/162/66 132/160/78 139/171/85 140/175/86
f 20/27/16 21/28/17 100/195/59 131/196/77
f 132/160/78 131/159/77 100/172/59 139/171/85
f 68/80/6 74/86/6 108/130/6 107/129/6
f 51/63/6 72/84/44 141/197/87 142/198/88
f 59/71/6 68/80/6 107/129/6 106/128/6
f 60/72/44 59/71/6 106/128/6 105/127/64
f 52/64/38 51/63/6 142/198/88 143/199/89
f 48/60/6 47/59/38 102/124/61 88/102/6
f 78/90/6 48/60/6 88/102/6 87/101/6
f 90/106/1 89/105/1 41/53/1 79/91/1
f 92/110/1 91/109/1 75/87/1 65/77/1
f 26/34/22 25/33/21 61/73/45 144/200/90
f 97/116/1 92/110/1 65/77/1 62/74/1
f 25/33/21 97/116/1 62/74/1 61/73/45
f 101/123/60 26/34/22 144/200/90 42/54/35
f 89/105/1 101/123/60 42/54/35 41/53/1
f 66/78/1 76/88/1 124/152/1 123/151/1
f 55/67/1 70/82/46 145/201/91 146/202/92
f 63/75/1 66/78/1 123/151/1 122/150/1
f 64/76/46 63/75/1 122/150/1 121/149/70
f 56/68/36 55/67/1 146/202/92 147/203/93
f 44/56/1 43/55/36 118/146/67 110/132/1
f 80/92/1 44/56/1 110/132/1 109/131/1
f 112/136/6 111/135/6 45/57/6 77/89/6
f 114/140/6 113/139/6 73/85/6 67/79/6
f 93/111/53 98/119/57 57/69/43 148/204/94
f 115/142/6 114/140/6 67/79/6 58/70/6
f 98/119/57 115/142/6 58/70/6 57/69/43
f 94/112/54 93/111/53 148/204/94 46/58/37
f 111/135/6 94/112/54 46/58/37 45/57/6
f 72/84/44 71/83/48 57/69/43 60/72/44
f 70/82/46 69/81/47 61/73/45 64/76/46
f 49/61/39 52/64/38 47/59/38 46/58/37
f 53/65/41 56/68/36 43/55/36 42/54/35
f 141/197/87 72/84/44 60/72/44 105/127/64
f 52/64/38 143/199/89 102/124/61 47/59/38
f 142/198/88 141/197/87 105/127/64 103/125/62
f 143/199/89 142/198/88 103/125/62 102/124/61
f 69/81/47 54/66/42 144/200/90 61/73/45
f 54/66/42 53/65/41 42/54/35 144/200/90
f 145/201/91 70/82/46 64/76/46 121/149/70
f 56/68/36 147/203/93 118/146/67 43/55/36
f 146/202/92 145/201/91 121/149/70 119/147/68
f 147/203/93 146/202/92 119/147/68 118/146/67
f 71/83/48 50/62/40 148/204/94 57/69/43
f 50/62/40 49/61/39 46/58/37 148/204/94
f 149/205/6 150/206/5 151/207/4 152/208/6
f 150/209/5 153/210/3 154/211/2 151/212/4
f 155/213/1 156/214/10 157/215/9 158/216/1
f 156/217/10 159/218/8 160/219/7 157/220/9
f 161/221/12 162/222/11 159/218/8 156/217/10
f 163/223/1 161/224/12 156/214/10 155/213/1
f 164/225/14 165/226/13 153/210/3 150/209/5
f 166/227/6 164/228/14 150/206/5 149/205/6
f 167/229/57 168/230/17 164/228/14 166/227/6
f 168/231/17 169/232/16 165/226/13 164/225/14
f 170/233/21 171/234/20 161/224/12 163/223/1
f 171/235/20 172/236/19 162/222/11 161/221/12
f 173/237/18 174/238/72 175/239/71 176/240/63
f 177/241/28 178/242/25 179/243/26 180/244/27
f 181/245/1 177/246/28 180/247/27 182/248/60
f 183/249/33 184/250/30 185/251/31 186/252/32
f 187/253/6 183/254/33 186/255/32 188/256/54
f 189/257/6 190/258/6 191/259/38 192/260/61
f 193/261/1 194/262/1 195/263/36 196/264/67
f 197/265/93 198/266/36 199/267/1 200/268/92
f 201/269/89 202/270/38 203/271/6 204/272/88
f 205/273/70 206/274/46 207/275/1 208/276/1
f 209/277/64 210/278/44 211/279/6 212/280/6
f 212/280/6 211/279/6 213/281/6 214/282/6
f 208/276/1 207/275/1 215/283/1 216/284/1
f 204/272/88 203/271/6 217/285/44 218/286/87
f 200/268/92 199/267/1 219/287/46 220/288/91
f 216/284/1 215/283/1 221/289/1 222/290/1
f 214/282/6 213/281/6 223/291/6 224/292/6
f 225/293/1 226/294/1 194/262/1 193/261/1
f 227/295/6 228/296/6 190/258/6 189/257/6
f 229/297/6 230/298/50 183/254/33 187/253/6
f 230/299/50 231/300/49 184/250/30 183/249/33
f 232/301/1 233/302/52 177/246/28 181/245/1
f 233/303/52 234/304/51 178/242/25 177/241/28
f 235/305/1 232/301/1 181/245/1 236/306/1
f 234/307/51 237/308/6 238/309/6 178/310/25
f 159/311/8 239/312/6 240/313/6 160/314/7
f 241/315/69 242/316/75 243/317/65 244/318/34
f 162/319/11 245/320/6 239/312/6 159/311/8
f 172/321/19 173/237/18 245/320/6 162/319/11
f 169/322/16 246/323/77 247/324/76 248/325/15
f 178/310/25 238/309/6 249/326/29 179/327/26
f 236/306/1 181/245/1 182/248/60 250/328/35
f 250/328/35 182/248/60 251/329/22 252/330/90
f 253/331/45 170/233/21 163/223/1 254/332/1
f 254/332/1 163/223/1 155/213/1 255/333/1
f 252/330/90 251/329/22 170/233/21 253/331/45
f 255/333/1 155/213/1 158/216/1 256/334/1
f 257/335/6 229/297/6 187/253/6 258/336/6
f 231/337/49 259/338/1 260/339/1 184/340/30
f 153/341/3 261/342/1 262/343/1 154/344/2
f 165/345/13 263/346/1 261/342/1 153/341/3
f 169/322/16 248/325/15 263/346/1 165/345/13
f 186/255/32 264/347/86 265/348/55 188/256/54
f 184/340/30 260/339/1 244/318/34 185/349/31
f 258/336/6 187/253/6 188/256/54 266/350/37
f 266/350/37 188/256/54 267/351/53 268/352/94
f 269/353/43 167/229/57 166/227/6 270/354/6
f 270/354/6 166/227/6 149/205/6 271/355/6
f 268/352/94 267/351/53 167/229/57 269/353/43
f 271/355/6 149/205/6 152/208/6 272/356/6
f 273/357/23 274/358/81 275/359/82 276/360/24
f 277/361/56 278/362/85 279/363/59 280/364/58
f 265/365/55 264/366/86 278/362/85 277/361/56
f 281/367/84 282/368/83 274/358/81 273/357/23
f 283/369/74 175/370/71 174/371/72 284/372/73
f 285/373/80 286/374/79 175/370/71 283/369/74
f 287/375/78 242/376/75 247/377/76 246/378/77
f 288/379/66 243/380/65 242/376/75 287/375/78
f 249/326/29 286/381/79 285/382/80 179/327/26
f 251/329/22 273/383/23 276/384/24 170/233/21
f 170/233/21 276/384/24 275/385/82 171/234/20
f 188/256/54 265/348/55 277/386/56 267/351/53
f 176/240/63 175/239/71 286/381/79 249/326/29
f 244/318/34 243/317/65 288/387/66 185/349/31
f 167/229/57 280/388/58 279/389/59 168/230/17
f 248/325/15 247/324/76 242/316/75 241/315/69
f 180/247/27 282/390/83 281/391/84 182/248/60
f 172/321/19 284/392/73 174/238/72 173/237/18
f 267/351/53 277/386/56 280/388/58 167/229/57
f 182/248/60 281/391/84 273/383/23 251/329/22
f 172/236/19 171/235/20 275/393/82 284/394/73
f 180/244/27 179/243/26 285/395/80 282/396/83
f 285/373/80 283/369/74 274/358/81 282/368/83
f 283/369/74 284/372/73 275/359/82 274/358/81
f 185/251/31 288/397/66 264/398/86 186/252/32
f 264/366/86 288/379/66 287/375/78 278/362/85
f 168/231/17 279/399/59 246/400/77 169/232/16
f 278/362/85 287/375/78 246/378/77 279/363/59
f 215/283/1 255/333/1 256/334/1 221/289/1
f 199/267/1 289/401/42 290/402/47 219/287/46
f 207/275/1 254/332/1 255/333/1 215/283/1
f 206/274/46 253/331/45 254/332/1 207/275/1
f 198/266/36 291/403/41 289/401/42 199/267/1
f 194/262/1 236/306/1 250/328/35 195/263/36
f 226/294/1 235/305/1 236/306/1 194/262/1
f 237/308/6 227/295/6 189/257/6 238/309/6
f 239/312/6 214/282/6 224/292/6 240/313/6
f 176/240/63 292/404/62 209/277/64 173/237/18
f 245/320/6 212/280/6 214/282/6 239/312/6
f 173/237/18 209/277/64 212/280/6 245/320/6
f 249/326/29 192/260/61 292/404/62 176/240/63
f 238/309/6 189/257/6 192/260/61 249/326/29
f 213/281/6 271/355/6 272/356/6 223/291/6
f 203/271/6 293/405/40 294/406/48 217/285/44
f 211/279/6 270/354/6 271/355/6 213/281/6
f 210/278/44 269/353/43 270/354/6 211/279/6
f 202/270/38 295/407/39 293/405/40 203/271/6
f 190/258/6 258/336/6 266/350/37 191/259/38
f 228/296/6 257/335/6 258/336/6 190/258/6
f 259/338/1 225/293/1 193/261/1 260/339/1
f 261/342/1 216/284/1 222/290/1 262/343/1
f 241/315/69 296/408/68 205/273/70 248/325/15
f 263/346/1 208/276/1 216/284/1 261/342/1
f 248/325/15 205/273/70 208/276/1 263/346/1
f 244/318/34 196/264/67 296/408/68 241/315/69
f 260/339/1 193/261/1 196/264/67 244/318/34
f 219/287/46 206/274/46 205/273/70 220/288/91
f 217/285/44 210/278/44 209/277/64 218/286/87
f 197/265/93 196/264/67 195/263/36 198/266/36
f 201/269/89 192/260/61 191/259/38 202/270/38
f 290/402/47 253/331/45 206/274/46 219/287/46
f 198/266/36 195/263/36 250/328/35 291/403/41
f 289/401/42 252/330/90 253/331/45 290/402/47
f 291/403/41 250/328/35 252/330/90 289/401/42
f 218/286/87 209/277/64 292/404/62 204/272/88
f 204/272/88 292/404/62 192/260/61 201/269/89
f 294/406/48 269/353/43 210/278/44 217/285/44
f 202/270/38 191/259/38 266/350/37 295/407/39
f 293/405/40 268/352/94 269/353/43 294/406/48
f 295/407/39 266/350/37 268/352/94 293/405/40
f 220/288/91 205/273/70 296/408/68 200/268/92
f 200/268/92 296/408/68 196/264/67 197/265/93
f 297/409/95 298/410/96 299/411/97 300/412/98
f 298/410/96 301/413/99 302/414/100 299/411/97
f 301/413/99 303/415/101 304/416/102 302/414/100
f 303/415/101 297/409/95 300/412/98 304/416/102
f 305/417/103 306/418/104 307/419/105 308/420/106
f 302/414/100 304/416/102 300/412/98 299/411/97
f 307/421/105 306/422/104 297/409/95 303/415/101
f 308/423/106 307/421/105 303/415/101 301/413/99
f 305/424/103 308/423/106 301/413/99 298/410/96
f 306/422/104 305/424/103 298/410/96 297/409/95
f 309/425/107 310/426/108 311/427/108 312/428/107
f 453/429/109 314/430/110 315/431/110 454/432/109
f 455/433/6 318/434/111 319/435/112 456/436/113
f 456/436/113 319/435/112 321/437/114 457/438/115
f 318/434/111 327/439/116 321/437/114 319/435/112
f 328/440/117 329/441/118 330/442/119 331/443/120
f 330/442/119 329/441/118 336/444/121
f 458/445/1 338/446/122 328/447/117 459/448/123
f 502/449/1 496/450/124 338/446/122 458/445/1
f 329/451/118 328/447/117 338/446/122 342/452/125
f 461/453/126 329/451/118 342/452/125 462/454/6
f 463/455/1 348/456/127 341/457/128 460/458/1
f 497/459/129 496/450/124 341/457/128 349/460/130
f 501/461/6 497/459/129 349/460/130 464/462/6
f 499/463/6 500/464/6 352/465/6 350/466/6
f 353/467/1 347/468/1 340/469/1 351/470/1
f 334/471/131 345/472/132 346/473/6 343/474/6
f 498/475/1 495/476/1 337/477/1 344/478/1
f 344/478/1 337/477/1 339/479/133 335/480/134
f 333/481/135 316/482/136 354/483/137 355/484/138
f 325/485/139 320/486/140 322/487/141 326/488/142
f 324/489/6 317/490/6 320/486/140 325/485/139
f 332/491/135 313/492/136 316/482/136 333/481/135
f 465/493/143 356/494/144 357/495/144 466/496/143
f 358/497/6 359/498/6 317/490/6 324/489/6
f 326/488/142 322/487/141 360/499/1 323/500/1
f 457/438/115 321/437/114 327/439/116 467/501/1
f 361/502/145 348/456/127 327/439/116 318/434/111
f 468/503/6 361/502/145 318/434/111 455/433/6
f 469/504/109 363/505/136 364/506/146 470/507/109
f 315/431/110 314/430/110 366/508/147 367/509/148
f 363/505/136 368/510/135 369/511/149 364/506/146
f 367/512/148 366/513/147 331/514/120 330/515/119
f 370/516/150 371/517/151 372/518/152 373/519/153
f 362/520/110 365/521/110 372/522/152 371/523/151
f 315/431/110 367/509/148 374/524/154
f 375/525/144 328/440/117 331/443/120 376/526/155
f 357/495/144 356/494/144 370/527/150 373/528/153
f 356/494/144 375/525/144 376/526/155 370/527/150
f 314/430/110 377/529/110 378/530/156 366/508/147
f 377/529/110 362/520/110 371/523/151 378/530/156
f 331/514/120 366/513/147 378/531/156 376/532/155
f 376/532/155 378/531/156 371/517/151 370/516/150
f 313/492/136 332/491/135 380/533/135 381/534/136
f 381/534/136 380/533/135 368/510/135 363/505/136
f 453/429/109 313/492/136 381/534/136 471/535/109
f 471/535/109 381/534/136 363/505/136 469/504/109
f 459/536/123 328/440/117 375/525/144 472/537/143
f 472/537/143 375/525/144 356/494/144 465/493/143
f 335/538/134 339/539/133 382/540/108 379/541/107
f 379/541/107 382/540/108 310/426/108 309/425/107
f 473/542/157 374/543/154 336/544/121 474/545/126
f 355/546/138 354/547/137 383/548/158 384/549/159
f 461/550/126 345/551/132 383/552/158 474/553/126
f 345/551/132 334/554/131 384/555/159 383/552/158
f 367/512/148 330/515/119 336/544/121 374/543/154
f 454/432/109 315/431/110 374/524/154 473/556/157
f 464/462/6 349/460/130 361/502/145 468/503/6
f 349/460/130 341/457/128 348/456/127 361/502/145
f 350/466/6 352/465/6 359/498/6 358/497/6
f 323/500/1 360/499/1 347/468/1 353/467/1
f 467/501/1 327/439/116 348/456/127 463/455/1
f 385/557/107 312/428/107 311/427/108 386/558/108
f 475/559/109 476/560/109 389/561/110 390/562/110
f 477/563/1 478/564/115 393/565/114 394/566/116
f 478/564/115 479/567/113 396/568/112 393/565/114
f 394/566/116 393/565/114 396/568/112 401/569/111
f 402/570/118 403/571/160 404/572/161 405/573/117
f 404/572/161 410/574/162 405/573/117
f 480/575/6 481/576/126 402/577/118 413/578/125
f 510/579/6 480/575/6 413/578/125 504/580/129
f 405/581/117 416/582/122 413/578/125 402/577/118
f 483/583/123 484/584/1 416/582/122 405/581/117
f 485/585/6 482/586/6 415/587/130 422/588/145
f 505/589/124 423/590/128 415/587/130 504/580/129
f 509/591/1 486/592/1 423/590/128 505/589/124
f 507/593/1 425/594/1 426/595/1 508/596/1
f 427/597/6 424/598/6 414/599/6 421/600/6
f 408/601/134 418/602/1 420/603/1 419/604/133
f 506/605/6 417/606/6 411/607/6 503/608/6
f 417/606/6 407/609/131 412/610/132 411/607/6
f 409/611/163 428/612/164 429/613/165 388/614/166
f 399/615/142 398/616/139 395/617/140 392/618/141
f 400/619/1 399/615/142 392/618/141 391/620/1
f 406/621/163 409/611/163 388/614/166 387/622/166
f 487/623/143 466/496/143 357/495/144 430/624/144
f 431/625/1 400/619/1 391/620/1 432/626/1
f 398/616/139 397/627/6 433/628/6 395/617/140
f 479/567/113 488/629/6 401/569/111 396/568/112
f 434/630/127 394/566/116 401/569/111 422/588/145
f 489/631/1 477/563/1 394/566/116 434/630/127
f 490/632/109 470/507/109 364/506/146 436/633/167
f 389/561/110 437/634/168 438/635/169 390/562/110
f 436/633/167 364/506/146 369/511/149 439/636/170
f 437/637/168 404/638/161 403/639/160 438/640/169
f 440/641/171 373/519/153 372/518/152 441/642/172
f 435/643/110 441/644/172 372/522/152 365/521/110
f 389/561/110 442/645/173 437/634/168
f 443/646/144 444/647/174 403/571/160 402/570/118
f 357/495/144 373/528/153 440/648/171 430/624/144
f 430/624/144 440/648/171 444/647/174 443/646/144
f 390/562/110 438/635/169 445/649/175 446/650/110
f 446/650/110 445/649/175 441/644/172 435/643/110
f 403/639/160 444/651/174 445/652/175 438/640/169
f 444/651/174 440/641/171 441/642/172 445/652/175
f 387/622/166 449/653/166 447/654/163 406/621/163
f 449/653/166 436/633/167 439/636/170 447/654/163
f 475/559/109 491/655/109 449/653/166 387/622/166
f 491/655/109 490/632/109 436/633/167 449/653/166
f 481/656/126 492/657/143 443/646/144 402/570/118
f 492/657/143 487/623/143 430/624/144 443/646/144
f 407/658/131 448/659/107 450/660/108 412/661/132
f 448/659/107 385/557/107 386/558/108 450/660/108
f 493/662/176 494/663/123 410/664/162 442/665/173
f 428/666/164 452/667/177 451/668/178 429/669/165
f 483/670/123 494/671/123 451/672/178 419/673/133
f 419/673/133 451/672/178 452/674/177 408/675/134
f 437/637/168 442/665/173 410/664/162 404/638/161
f 476/560/109 493/676/176 442/645/173 389/561/110
f 486/592/1 489/631/1 434/630/127 423/590/128
f 423/590/128 434/630/127 422/588/145 415/587/130
f 425/594/1 431/625/1 432/626/1 426/595/1
f 397/627/6 427/597/6 421/600/6 433/628/6
f 488/629/6 485/585/6 422/588/145 401/569/111
f 433/628/6 421/600/6 485/585/6 488/629/6
f 426/595/1 432/626/1 489/631/1 486/592/1
f 388/614/166 429/613/165 493/676/176 476/560/109
f 405/573/117 410/574/162 494/671/123 483/670/123
f 429/669/165 451/668/178 494/663/123 493/662/176
f 450/660/108 386/558/108 487/623/143 492/657/143
f 412/661/132 450/660/108 492/657/143 481/656/126
f 446/650/110 435/643/110 490/632/109 491/655/109
f 390/562/110 446/650/110 491/655/109 475/559/109
f 435/643/110 365/521/110 470/507/109 490/632/109
f 432/626/1 391/620/1 477/563/1 489/631/1
f 395/617/140 433/628/6 488/629/6 479/567/113
f 386/558/108 311/427/108 466/496/143 487/623/143
f 508/596/1 426/595/1 486/592/1 509/591/1
f 421/600/6 414/599/6 482/586/6 485/585/6
f 419/604/133 420/603/1 484/584/1 483/583/123
f 503/608/6 411/607/6 480/575/6 510/579/6
f 411/607/6 412/610/132 481/576/126 480/575/6
f 392/618/141 395/617/140 479/567/113 478/564/115
f 391/620/1 392/618/141 478/564/115 477/563/1
f 387/622/166 388/614/166 476/560/109 475/559/109
f 360/499/1 467/501/1 463/455/1 347/468/1
f 352/465/6 464/462/6 468/503/6 359/498/6
f 316/482/136 454/432/109 473/556/157 354/483/137
f 329/441/118 461/550/126 474/553/126 336/444/121
f 354/547/137 473/542/157 474/545/126 383/548/158
f 382/540/108 472/537/143 465/493/143 310/426/108
f 339/539/133 459/536/123 472/537/143 382/540/108
f 377/529/110 471/535/109 469/504/109 362/520/110
f 314/430/110 453/429/109 471/535/109 377/529/110
f 362/520/110 469/504/109 470/507/109 365/521/110
f 359/498/6 468/503/6 455/433/6 317/490/6
f 322/487/141 457/438/115 467/501/1 360/499/1
f 310/426/108 465/493/143 466/496/143 311/427/108
f 500/464/6 501/461/6 464/462/6 352/465/6
f 347/468/1 463/455/1 460/458/1 340/469/1
f 345/472/132 461/453/126 462/454/6 346/473/6
f 495/476/1 502/449/1 458/445/1 337/477/1
f 337/477/1 458/445/1 459/448/123 339/479/133
f 320/486/140 456/436/113 457/438/115 322/487/141
f 317/490/6 455/433/6 456/436/113 320/486/140
f 313/492/136 453/429/109 454/432/109 316/482/136
f 340/469/1 460/458/1 502/449/1 495/476/1
f 346/473/6 462/454/6 501/461/6 500/464/6
f 351/470/1 340/469/1 495/476/1 498/475/1
f 343/474/6 346/473/6 500/464/6 499/463/6
f 462/454/6 342/452/125 497/459/129 501/461/6
f 342/452/125 338/446/122 496/450/124 497/459/129
f 460/458/1 341/457/128 496/450/124 502/449/1
f 414/599/6 503/608/6 510/579/6 482/586/6
f 420/603/1 508/596/1 509/591/1 484/584/1
f 424/598/6 506/605/6 503/608/6 414/599/6
f 418/602/1 507/593/1 508/596/1 420/603/1
f 484/584/1 509/591/1 505/589/124 416/582/122
f 416/582/122 505/589/124 504/580/129 413/578/125
f 482/586/6 510/579/6 504/580/129 415/587/130
